Analysis & Synthesis report for cultivos
Tue Nov 21 10:17:44 2017
Quartus II 64-Bit Version 13.0.1 Build 232 06/12/2013 Service Pack 1 SJ Web Edition


---------------------
; Table of Contents ;
---------------------
  1. Legal Notice
  2. Analysis & Synthesis Summary
  3. Analysis & Synthesis Settings
  4. Parallel Compilation
  5. Analysis & Synthesis Source Files Read
  6. Analysis & Synthesis Resource Usage Summary
  7. Analysis & Synthesis Resource Utilization by Entity
  8. Analysis & Synthesis RAM Summary
  9. General Register Statistics
 10. Inverted Register Statistics
 11. Registers Packed Into Inferred Megafunctions
 12. Multiplexer Restructuring Statistics (Restructuring Performed)
 13. Source assignments for RAMemory:RAM|altsyncram:ram_rtl_0|altsyncram_vd91:auto_generated
 14. Parameter Settings for User Entity Instance: RAMemory:RAM
 15. Parameter Settings for Inferred Entity Instance: RAMemory:RAM|altsyncram:ram_rtl_0
 16. Parameter Settings for Inferred Entity Instance: ALU:ALU|lpm_add_sub:Add0
 17. altsyncram Parameter Settings by Entity Instance
 18. Port Connectivity Checks: "IRegister:IR"
 19. Port Connectivity Checks: "muxALU:muxALU"
 20. Port Connectivity Checks: "RAMemory:RAM"
 21. Elapsed Time Per Partition
 22. Analysis & Synthesis Messages



----------------
; Legal Notice ;
----------------
Copyright (C) 1991-2013 Altera Corporation
Your use of Altera Corporation's design tools, logic functions 
and other software and tools, and its AMPP partner logic 
functions, and any output files from any of the foregoing 
(including device programming or simulation files), and any 
associated documentation or information are expressly subject 
to the terms and conditions of the Altera Program License 
Subscription Agreement, Altera MegaCore Function License 
Agreement, or other applicable license agreement, including, 
without limitation, that your use is for the sole purpose of 
programming logic devices manufactured by Altera and sold by 
Altera or its authorized distributors.  Please refer to the 
applicable agreement for further details.



+--------------------------------------------------------------------------------------+
; Analysis & Synthesis Summary                                                         ;
+------------------------------------+-------------------------------------------------+
; Analysis & Synthesis Status        ; Successful - Tue Nov 21 10:17:44 2017           ;
; Quartus II 64-Bit Version          ; 13.0.1 Build 232 06/12/2013 SP 1 SJ Web Edition ;
; Revision Name                      ; cultivos                                        ;
; Top-level Entity Name              ; Integracion                                     ;
; Family                             ; Cyclone IV GX                                   ;
; Total logic elements               ; 315                                             ;
;     Total combinational functions  ; 193                                             ;
;     Dedicated logic registers      ; 145                                             ;
; Total registers                    ; 145                                             ;
; Total pins                         ; 73                                              ;
; Total virtual pins                 ; 0                                               ;
; Total memory bits                  ; 1,344                                           ;
; Embedded Multiplier 9-bit elements ; 0                                               ;
; Total GXB Receiver Channel PCS     ; 0                                               ;
; Total GXB Receiver Channel PMA     ; 0                                               ;
; Total GXB Transmitter Channel PCS  ; 0                                               ;
; Total GXB Transmitter Channel PMA  ; 0                                               ;
; Total PLLs                         ; 0                                               ;
+------------------------------------+-------------------------------------------------+


+----------------------------------------------------------------------------------------------------------------------+
; Analysis & Synthesis Settings                                                                                        ;
+----------------------------------------------------------------------------+--------------------+--------------------+
; Option                                                                     ; Setting            ; Default Value      ;
+----------------------------------------------------------------------------+--------------------+--------------------+
; Top-level entity name                                                      ; Integracion        ; cultivos           ;
; Family name                                                                ; Cyclone IV GX      ; Cyclone IV GX      ;
; Use smart compilation                                                      ; Off                ; Off                ;
; Enable parallel Assembler and TimeQuest Timing Analyzer during compilation ; On                 ; On                 ;
; Enable compact report table                                                ; Off                ; Off                ;
; Restructure Multiplexers                                                   ; Auto               ; Auto               ;
; Create Debugging Nodes for IP Cores                                        ; Off                ; Off                ;
; Preserve fewer node names                                                  ; On                 ; On                 ;
; Disable OpenCore Plus hardware evaluation                                  ; Off                ; Off                ;
; Verilog Version                                                            ; Verilog_2001       ; Verilog_2001       ;
; VHDL Version                                                               ; VHDL_1993          ; VHDL_1993          ;
; State Machine Processing                                                   ; Auto               ; Auto               ;
; Safe State Machine                                                         ; Off                ; Off                ;
; Extract Verilog State Machines                                             ; On                 ; On                 ;
; Extract VHDL State Machines                                                ; On                 ; On                 ;
; Ignore Verilog initial constructs                                          ; Off                ; Off                ;
; Iteration limit for constant Verilog loops                                 ; 5000               ; 5000               ;
; Iteration limit for non-constant Verilog loops                             ; 250                ; 250                ;
; Add Pass-Through Logic to Inferred RAMs                                    ; On                 ; On                 ;
; Infer RAMs from Raw Logic                                                  ; On                 ; On                 ;
; Parallel Synthesis                                                         ; On                 ; On                 ;
; DSP Block Balancing                                                        ; Auto               ; Auto               ;
; NOT Gate Push-Back                                                         ; On                 ; On                 ;
; Power-Up Don't Care                                                        ; On                 ; On                 ;
; Remove Redundant Logic Cells                                               ; Off                ; Off                ;
; Remove Duplicate Registers                                                 ; On                 ; On                 ;
; Ignore CARRY Buffers                                                       ; Off                ; Off                ;
; Ignore CASCADE Buffers                                                     ; Off                ; Off                ;
; Ignore GLOBAL Buffers                                                      ; Off                ; Off                ;
; Ignore ROW GLOBAL Buffers                                                  ; Off                ; Off                ;
; Ignore LCELL Buffers                                                       ; Off                ; Off                ;
; Ignore SOFT Buffers                                                        ; On                 ; On                 ;
; Limit AHDL Integers to 32 Bits                                             ; Off                ; Off                ;
; Optimization Technique                                                     ; Balanced           ; Balanced           ;
; Carry Chain Length                                                         ; 70                 ; 70                 ;
; Auto Carry Chains                                                          ; On                 ; On                 ;
; Auto Open-Drain Pins                                                       ; On                 ; On                 ;
; Perform WYSIWYG Primitive Resynthesis                                      ; Off                ; Off                ;
; Auto ROM Replacement                                                       ; On                 ; On                 ;
; Auto RAM Replacement                                                       ; On                 ; On                 ;
; Auto DSP Block Replacement                                                 ; On                 ; On                 ;
; Auto Shift Register Replacement                                            ; Auto               ; Auto               ;
; Allow Shift Register Merging across Hierarchies                            ; Auto               ; Auto               ;
; Auto Clock Enable Replacement                                              ; On                 ; On                 ;
; Strict RAM Replacement                                                     ; Off                ; Off                ;
; Allow Synchronous Control Signals                                          ; On                 ; On                 ;
; Force Use of Synchronous Clear Signals                                     ; Off                ; Off                ;
; Auto RAM Block Balancing                                                   ; On                 ; On                 ;
; Auto RAM to Logic Cell Conversion                                          ; Off                ; Off                ;
; Auto Resource Sharing                                                      ; Off                ; Off                ;
; Allow Any RAM Size For Recognition                                         ; Off                ; Off                ;
; Allow Any ROM Size For Recognition                                         ; Off                ; Off                ;
; Allow Any Shift Register Size For Recognition                              ; Off                ; Off                ;
; Use LogicLock Constraints during Resource Balancing                        ; On                 ; On                 ;
; Ignore translate_off and synthesis_off directives                          ; Off                ; Off                ;
; Timing-Driven Synthesis                                                    ; On                 ; On                 ;
; Report Parameter Settings                                                  ; On                 ; On                 ;
; Report Source Assignments                                                  ; On                 ; On                 ;
; Report Connectivity Checks                                                 ; On                 ; On                 ;
; Ignore Maximum Fan-Out Assignments                                         ; Off                ; Off                ;
; Synchronization Register Chain Length                                      ; 2                  ; 2                  ;
; PowerPlay Power Optimization                                               ; Normal compilation ; Normal compilation ;
; HDL message level                                                          ; Level2             ; Level2             ;
; Suppress Register Optimization Related Messages                            ; Off                ; Off                ;
; Number of Removed Registers Reported in Synthesis Report                   ; 5000               ; 5000               ;
; Number of Swept Nodes Reported in Synthesis Report                         ; 5000               ; 5000               ;
; Number of Inverted Registers Reported in Synthesis Report                  ; 100                ; 100                ;
; Clock MUX Protection                                                       ; On                 ; On                 ;
; Auto Gated Clock Conversion                                                ; Off                ; Off                ;
; Block Design Naming                                                        ; Auto               ; Auto               ;
; SDC constraint protection                                                  ; Off                ; Off                ;
; Synthesis Effort                                                           ; Auto               ; Auto               ;
; Shift Register Replacement - Allow Asynchronous Clear Signal               ; On                 ; On                 ;
; Pre-Mapping Resynthesis Optimization                                       ; Off                ; Off                ;
; Analysis & Synthesis Message Level                                         ; Medium             ; Medium             ;
; Disable Register Merging Across Hierarchies                                ; Auto               ; Auto               ;
; Resource Aware Inference For Block RAM                                     ; On                 ; On                 ;
; Synthesis Seed                                                             ; 1                  ; 1                  ;
+----------------------------------------------------------------------------+--------------------+--------------------+


Parallel compilation was disabled, but you have multiple processors available. Enable parallel compilation to reduce compilation time.
+-------------------------------------+
; Parallel Compilation                ;
+----------------------------+--------+
; Processors                 ; Number ;
+----------------------------+--------+
; Number detected on machine ; 4      ;
; Maximum allowed            ; 1      ;
+----------------------------+--------+


+---------------------------------------------------------------------------------------------------------------------------------------------------------------------------------------------------------------+
; Analysis & Synthesis Source Files Read                                                                                                                                                                        ;
+--------------------------------------------+-----------------+-------------------------------------------------------+------------------------------------------------------------------------------+---------+
; File Name with User-Entered Path           ; Used in Netlist ; File Type                                             ; File Name with Absolute Path                                                 ; Library ;
+--------------------------------------------+-----------------+-------------------------------------------------------+------------------------------------------------------------------------------+---------+
; registerFile.vhd                           ; yes             ; User VHDL File                                        ; C:/Users/ALEJANDRO/Desktop/Arquii/registerFile.vhd                           ;         ;
; RAMemory.vhd                               ; yes             ; User VHDL File                                        ; C:/Users/ALEJANDRO/Desktop/Arquii/RAMemory.vhd                               ;         ;
; ALU.vhd                                    ; yes             ; User VHDL File                                        ; C:/Users/ALEJANDRO/Desktop/Arquii/ALU.vhd                                    ;         ;
; Integracion.vhd                            ; yes             ; User VHDL File                                        ; C:/Users/ALEJANDRO/Desktop/Arquii/Integracion.vhd                            ;         ;
; muxALU.vhd                                 ; yes             ; User VHDL File                                        ; C:/Users/ALEJANDRO/Desktop/Arquii/muxALU.vhd                                 ;         ;
; IRegister.vhd                              ; yes             ; User VHDL File                                        ; C:/Users/ALEJANDRO/Desktop/Arquii/IRegister.vhd                              ;         ;
; muxMemoryIorD.vhd                          ; yes             ; User VHDL File                                        ; C:/Users/ALEJANDRO/Desktop/Arquii/muxMemoryIorD.vhd                          ;         ;
; registro.vhd                               ; yes             ; User VHDL File                                        ; C:/Users/ALEJANDRO/Desktop/Arquii/registro.vhd                               ;         ;
; altsyncram.tdf                             ; yes             ; Megafunction                                          ; c:/altera/13.0sp1/quartus/libraries/megafunctions/altsyncram.tdf             ;         ;
; stratix_ram_block.inc                      ; yes             ; Megafunction                                          ; c:/altera/13.0sp1/quartus/libraries/megafunctions/stratix_ram_block.inc      ;         ;
; lpm_mux.inc                                ; yes             ; Megafunction                                          ; c:/altera/13.0sp1/quartus/libraries/megafunctions/lpm_mux.inc                ;         ;
; lpm_decode.inc                             ; yes             ; Megafunction                                          ; c:/altera/13.0sp1/quartus/libraries/megafunctions/lpm_decode.inc             ;         ;
; aglobal130.inc                             ; yes             ; Megafunction                                          ; c:/altera/13.0sp1/quartus/libraries/megafunctions/aglobal130.inc             ;         ;
; a_rdenreg.inc                              ; yes             ; Megafunction                                          ; c:/altera/13.0sp1/quartus/libraries/megafunctions/a_rdenreg.inc              ;         ;
; altrom.inc                                 ; yes             ; Megafunction                                          ; c:/altera/13.0sp1/quartus/libraries/megafunctions/altrom.inc                 ;         ;
; altram.inc                                 ; yes             ; Megafunction                                          ; c:/altera/13.0sp1/quartus/libraries/megafunctions/altram.inc                 ;         ;
; altdpram.inc                               ; yes             ; Megafunction                                          ; c:/altera/13.0sp1/quartus/libraries/megafunctions/altdpram.inc               ;         ;
; db/altsyncram_vd91.tdf                     ; yes             ; Auto-Generated Megafunction                           ; C:/Users/ALEJANDRO/Desktop/Arquii/db/altsyncram_vd91.tdf                     ;         ;
; db/cultivos.ram0_ramemory_a459f2c8.hdl.mif ; yes             ; Auto-Generated Auto-Found Memory Initialization File  ; C:/Users/ALEJANDRO/Desktop/Arquii/db/cultivos.ram0_ramemory_a459f2c8.hdl.mif ;         ;
; lpm_add_sub.tdf                            ; yes             ; Megafunction                                          ; c:/altera/13.0sp1/quartus/libraries/megafunctions/lpm_add_sub.tdf            ;         ;
; addcore.inc                                ; yes             ; Megafunction                                          ; c:/altera/13.0sp1/quartus/libraries/megafunctions/addcore.inc                ;         ;
; look_add.inc                               ; yes             ; Megafunction                                          ; c:/altera/13.0sp1/quartus/libraries/megafunctions/look_add.inc               ;         ;
; bypassff.inc                               ; yes             ; Megafunction                                          ; c:/altera/13.0sp1/quartus/libraries/megafunctions/bypassff.inc               ;         ;
; altshift.inc                               ; yes             ; Megafunction                                          ; c:/altera/13.0sp1/quartus/libraries/megafunctions/altshift.inc               ;         ;
; alt_stratix_add_sub.inc                    ; yes             ; Megafunction                                          ; c:/altera/13.0sp1/quartus/libraries/megafunctions/alt_stratix_add_sub.inc    ;         ;
; db/add_sub_52j.tdf                         ; yes             ; Auto-Generated Megafunction                           ; C:/Users/ALEJANDRO/Desktop/Arquii/db/add_sub_52j.tdf                         ;         ;
+--------------------------------------------+-----------------+-------------------------------------------------------+------------------------------------------------------------------------------+---------+


+---------------------------------------------+
; Analysis & Synthesis Resource Usage Summary ;
+--------------------------+------------------+
; Resource                 ; Usage            ;
+--------------------------+------------------+
; I/O pins                 ; 73               ;
; Total memory bits        ; 1344             ;
; DSP block 9-bit elements ; 0                ;
; Maximum fan-out node     ; clk_in~input     ;
; Maximum fan-out          ; 166              ;
; Total fan-out            ; 1465             ;
; Average fan-out          ; 2.90             ;
+--------------------------+------------------+


+------------------------------------------------------------------------------------------------------------------------------------------------------------------------------------------------------------------------------------------------------------------+
; Analysis & Synthesis Resource Utilization by Entity                                                                                                                                                                                                              ;
+-------------------------------------------+-------------------+--------------+-------------+--------------+---------+-----------+-----------+------+--------------+-------------------------------------------------------------------------------+--------------+
; Compilation Hierarchy Node                ; LC Combinationals ; LC Registers ; Memory Bits ; DSP Elements ; DSP 9x9 ; DSP 18x18 ; DSP 36x36 ; Pins ; Virtual Pins ; Full Hierarchy Name                                                           ; Library Name ;
+-------------------------------------------+-------------------+--------------+-------------+--------------+---------+-----------+-----------+------+--------------+-------------------------------------------------------------------------------+--------------+
; |Integracion                              ; 193 (1)           ; 145 (0)      ; 1344        ; 0            ; 0       ; 0         ; 0         ; 73   ; 0            ; |Integracion                                                                  ; work         ;
;    |ALU:ALU|                              ; 16 (1)            ; 0 (0)        ; 0           ; 0            ; 0       ; 0         ; 0         ; 0    ; 0            ; |Integracion|ALU:ALU                                                          ; work         ;
;       |lpm_add_sub:Add0|                  ; 15 (0)            ; 0 (0)        ; 0           ; 0            ; 0       ; 0         ; 0         ; 0    ; 0            ; |Integracion|ALU:ALU|lpm_add_sub:Add0                                         ; work         ;
;          |add_sub_52j:auto_generated|     ; 15 (15)           ; 0 (0)        ; 0           ; 0            ; 0       ; 0         ; 0         ; 0    ; 0            ; |Integracion|ALU:ALU|lpm_add_sub:Add0|add_sub_52j:auto_generated              ; work         ;
;    |IRegister:IR|                         ; 0 (0)             ; 12 (12)      ; 0           ; 0            ; 0       ; 0         ; 0         ; 0    ; 0            ; |Integracion|IRegister:IR                                                     ; work         ;
;    |RAMemory:RAM|                         ; 0 (0)             ; 0 (0)        ; 1344        ; 0            ; 0       ; 0         ; 0         ; 0    ; 0            ; |Integracion|RAMemory:RAM                                                     ; work         ;
;       |altsyncram:ram_rtl_0|              ; 0 (0)             ; 0 (0)        ; 1344        ; 0            ; 0       ; 0         ; 0         ; 0    ; 0            ; |Integracion|RAMemory:RAM|altsyncram:ram_rtl_0                                ; work         ;
;          |altsyncram_vd91:auto_generated| ; 0 (0)             ; 0 (0)        ; 1344        ; 0            ; 0       ; 0         ; 0         ; 0    ; 0            ; |Integracion|RAMemory:RAM|altsyncram:ram_rtl_0|altsyncram_vd91:auto_generated ; work         ;
;    |muxMemoryIorD:muxIorD|                ; 6 (6)             ; 0 (0)        ; 0           ; 0            ; 0       ; 0         ; 0         ; 0    ; 0            ; |Integracion|muxMemoryIorD:muxIorD                                            ; work         ;
;    |registerFile:RegisterFile|            ; 170 (170)         ; 112 (112)    ; 0           ; 0            ; 0       ; 0         ; 0         ; 0    ; 0            ; |Integracion|registerFile:RegisterFile                                        ; work         ;
;    |registro:ALUOut|                      ; 0 (0)             ; 7 (7)        ; 0           ; 0            ; 0       ; 0         ; 0         ; 0    ; 0            ; |Integracion|registro:ALUOut                                                  ; work         ;
;    |registro:RA|                          ; 0 (0)             ; 7 (7)        ; 0           ; 0            ; 0       ; 0         ; 0         ; 0    ; 0            ; |Integracion|registro:RA                                                      ; work         ;
;    |registro:RB|                          ; 0 (0)             ; 7 (7)        ; 0           ; 0            ; 0       ; 0         ; 0         ; 0    ; 0            ; |Integracion|registro:RB                                                      ; work         ;
+-------------------------------------------+-------------------+--------------+-------------+--------------+---------+-----------+-----------+------+--------------+-------------------------------------------------------------------------------+--------------+
Note: For table entries with two numbers listed, the numbers in parentheses indicate the number of resources of the given type used by the specific entity alone. The numbers listed outside of parentheses indicate the total resources of the given type used by the specific entity and all of its sub-entities in the hierarchy.


+------------------------------------------------------------------------------------------------------------------------------------------------------------------------------------------------------------------+
; Analysis & Synthesis RAM Summary                                                                                                                                                                                 ;
+-----------------------------------------------------------------------------+------+-------------+--------------+--------------+--------------+--------------+------+--------------------------------------------+
; Name                                                                        ; Type ; Mode        ; Port A Depth ; Port A Width ; Port B Depth ; Port B Width ; Size ; MIF                                        ;
+-----------------------------------------------------------------------------+------+-------------+--------------+--------------+--------------+--------------+------+--------------------------------------------+
; RAMemory:RAM|altsyncram:ram_rtl_0|altsyncram_vd91:auto_generated|ALTSYNCRAM ; AUTO ; Single Port ; 64           ; 21           ; --           ; --           ; 1344 ; db/cultivos.ram0_RAMemory_a459f2c8.hdl.mif ;
+-----------------------------------------------------------------------------+------+-------------+--------------+--------------+--------------+--------------+------+--------------------------------------------+


+------------------------------------------------------+
; General Register Statistics                          ;
+----------------------------------------------+-------+
; Statistic                                    ; Value ;
+----------------------------------------------+-------+
; Total registers                              ; 145   ;
; Number of registers using Synchronous Clear  ; 0     ;
; Number of registers using Synchronous Load   ; 0     ;
; Number of registers using Asynchronous Clear ; 0     ;
; Number of registers using Asynchronous Load  ; 0     ;
; Number of registers using Clock Enable       ; 145   ;
; Number of registers using Preset             ; 0     ;
+----------------------------------------------+-------+


+--------------------------------------------------+
; Inverted Register Statistics                     ;
+----------------------------------------+---------+
; Inverted Register                      ; Fan out ;
+----------------------------------------+---------+
; registerFile:RegisterFile|R2[0]        ; 2       ;
; registerFile:RegisterFile|R1[0]        ; 2       ;
; Total number of inverted registers = 2 ;         ;
+----------------------------------------+---------+


+-------------------------------------------------------------+
; Registers Packed Into Inferred Megafunctions                ;
+-----------------------------+------------------------+------+
; Register Name               ; Megafunction           ; Type ;
+-----------------------------+------------------------+------+
; RAMemory:RAM|addr_reg[0..5] ; RAMemory:RAM|ram_rtl_0 ; RAM  ;
+-----------------------------+------------------------+------+


+------------------------------------------------------------------------------------------------------------------------------------------------+
; Multiplexer Restructuring Statistics (Restructuring Performed)                                                                                 ;
+--------------------+-----------+---------------+----------------------+------------------------+------------+----------------------------------+
; Multiplexer Inputs ; Bus Width ; Baseline Area ; Area if Restructured ; Saving if Restructured ; Registered ; Example Multiplexer Output       ;
+--------------------+-----------+---------------+----------------------+------------------------+------------+----------------------------------+
; 16:1               ; 7 bits    ; 70 LEs        ; 70 LEs               ; 0 LEs                  ; Yes        ; |Integracion|registro:RA|data[2] ;
; 16:1               ; 7 bits    ; 70 LEs        ; 70 LEs               ; 0 LEs                  ; Yes        ; |Integracion|registro:RB|data[6] ;
+--------------------+-----------+---------------+----------------------+------------------------+------------+----------------------------------+


+-----------------------------------------------------------------------------------------+
; Source assignments for RAMemory:RAM|altsyncram:ram_rtl_0|altsyncram_vd91:auto_generated ;
+---------------------------------+--------------------+------+---------------------------+
; Assignment                      ; Value              ; From ; To                        ;
+---------------------------------+--------------------+------+---------------------------+
; OPTIMIZE_POWER_DURING_SYNTHESIS ; NORMAL_COMPILATION ; -    ; -                         ;
+---------------------------------+--------------------+------+---------------------------+


+-----------------------------------------------------------+
; Parameter Settings for User Entity Instance: RAMemory:RAM ;
+----------------+-------+----------------------------------+
; Parameter Name ; Value ; Type                             ;
+----------------+-------+----------------------------------+
; data_width     ; 21    ; Signed Integer                   ;
; addr_width     ; 6     ; Signed Integer                   ;
+----------------+-------+----------------------------------+
Note: In order to hide this table in the UI and the text report file, please set the "Show Parameter Settings in Synthesis Report" option in "Analysis and Synthesis Settings -> More Settings" to "Off".


+--------------------------------------------------------------------------------------------------+
; Parameter Settings for Inferred Entity Instance: RAMemory:RAM|altsyncram:ram_rtl_0               ;
+------------------------------------+--------------------------------------------+----------------+
; Parameter Name                     ; Value                                      ; Type           ;
+------------------------------------+--------------------------------------------+----------------+
; BYTE_SIZE_BLOCK                    ; 8                                          ; Untyped        ;
; AUTO_CARRY_CHAINS                  ; ON                                         ; AUTO_CARRY     ;
; IGNORE_CARRY_BUFFERS               ; OFF                                        ; IGNORE_CARRY   ;
; AUTO_CASCADE_CHAINS                ; ON                                         ; AUTO_CASCADE   ;
; IGNORE_CASCADE_BUFFERS             ; OFF                                        ; IGNORE_CASCADE ;
; WIDTH_BYTEENA                      ; 1                                          ; Untyped        ;
; OPERATION_MODE                     ; SINGLE_PORT                                ; Untyped        ;
; WIDTH_A                            ; 21                                         ; Untyped        ;
; WIDTHAD_A                          ; 6                                          ; Untyped        ;
; NUMWORDS_A                         ; 64                                         ; Untyped        ;
; OUTDATA_REG_A                      ; UNREGISTERED                               ; Untyped        ;
; ADDRESS_ACLR_A                     ; NONE                                       ; Untyped        ;
; OUTDATA_ACLR_A                     ; NONE                                       ; Untyped        ;
; WRCONTROL_ACLR_A                   ; NONE                                       ; Untyped        ;
; INDATA_ACLR_A                      ; NONE                                       ; Untyped        ;
; BYTEENA_ACLR_A                     ; NONE                                       ; Untyped        ;
; WIDTH_B                            ; 1                                          ; Untyped        ;
; WIDTHAD_B                          ; 1                                          ; Untyped        ;
; NUMWORDS_B                         ; 1                                          ; Untyped        ;
; INDATA_REG_B                       ; CLOCK1                                     ; Untyped        ;
; WRCONTROL_WRADDRESS_REG_B          ; CLOCK1                                     ; Untyped        ;
; RDCONTROL_REG_B                    ; CLOCK1                                     ; Untyped        ;
; ADDRESS_REG_B                      ; CLOCK1                                     ; Untyped        ;
; OUTDATA_REG_B                      ; UNREGISTERED                               ; Untyped        ;
; BYTEENA_REG_B                      ; CLOCK1                                     ; Untyped        ;
; INDATA_ACLR_B                      ; NONE                                       ; Untyped        ;
; WRCONTROL_ACLR_B                   ; NONE                                       ; Untyped        ;
; ADDRESS_ACLR_B                     ; NONE                                       ; Untyped        ;
; OUTDATA_ACLR_B                     ; NONE                                       ; Untyped        ;
; RDCONTROL_ACLR_B                   ; NONE                                       ; Untyped        ;
; BYTEENA_ACLR_B                     ; NONE                                       ; Untyped        ;
; WIDTH_BYTEENA_A                    ; 1                                          ; Untyped        ;
; WIDTH_BYTEENA_B                    ; 1                                          ; Untyped        ;
; RAM_BLOCK_TYPE                     ; AUTO                                       ; Untyped        ;
; BYTE_SIZE                          ; 8                                          ; Untyped        ;
; READ_DURING_WRITE_MODE_MIXED_PORTS ; DONT_CARE                                  ; Untyped        ;
; READ_DURING_WRITE_MODE_PORT_A      ; NEW_DATA_NO_NBE_READ                       ; Untyped        ;
; READ_DURING_WRITE_MODE_PORT_B      ; NEW_DATA_NO_NBE_READ                       ; Untyped        ;
; INIT_FILE                          ; db/cultivos.ram0_RAMemory_a459f2c8.hdl.mif ; Untyped        ;
; INIT_FILE_LAYOUT                   ; PORT_A                                     ; Untyped        ;
; MAXIMUM_DEPTH                      ; 0                                          ; Untyped        ;
; CLOCK_ENABLE_INPUT_A               ; NORMAL                                     ; Untyped        ;
; CLOCK_ENABLE_INPUT_B               ; NORMAL                                     ; Untyped        ;
; CLOCK_ENABLE_OUTPUT_A              ; NORMAL                                     ; Untyped        ;
; CLOCK_ENABLE_OUTPUT_B              ; NORMAL                                     ; Untyped        ;
; CLOCK_ENABLE_CORE_A                ; USE_INPUT_CLKEN                            ; Untyped        ;
; CLOCK_ENABLE_CORE_B                ; USE_INPUT_CLKEN                            ; Untyped        ;
; ENABLE_ECC                         ; FALSE                                      ; Untyped        ;
; ECC_PIPELINE_STAGE_ENABLED         ; FALSE                                      ; Untyped        ;
; WIDTH_ECCSTATUS                    ; 3                                          ; Untyped        ;
; DEVICE_FAMILY                      ; Cyclone IV GX                              ; Untyped        ;
; CBXI_PARAMETER                     ; altsyncram_vd91                            ; Untyped        ;
+------------------------------------+--------------------------------------------+----------------+
Note: In order to hide this table in the UI and the text report file, please set the "Show Parameter Settings in Synthesis Report" option in "Analysis and Synthesis Settings -> More Settings" to "Off".


+---------------------------------------------------------------------------+
; Parameter Settings for Inferred Entity Instance: ALU:ALU|lpm_add_sub:Add0 ;
+------------------------+---------------+----------------------------------+
; Parameter Name         ; Value         ; Type                             ;
+------------------------+---------------+----------------------------------+
; LPM_WIDTH              ; 7             ; Untyped                          ;
; LPM_REPRESENTATION     ; UNSIGNED      ; Untyped                          ;
; LPM_DIRECTION          ; DEFAULT       ; Untyped                          ;
; ONE_INPUT_IS_CONSTANT  ; NO            ; Untyped                          ;
; LPM_PIPELINE           ; 0             ; Untyped                          ;
; MAXIMIZE_SPEED         ; 5             ; Untyped                          ;
; REGISTERED_AT_END      ; 0             ; Untyped                          ;
; OPTIMIZE_FOR_SPEED     ; 5             ; Untyped                          ;
; USE_CS_BUFFERS         ; 1             ; Untyped                          ;
; CARRY_CHAIN            ; MANUAL        ; Untyped                          ;
; CARRY_CHAIN_LENGTH     ; 48            ; CARRY_CHAIN_LENGTH               ;
; DEVICE_FAMILY          ; Cyclone IV GX ; Untyped                          ;
; USE_WYS                ; OFF           ; Untyped                          ;
; STYLE                  ; FAST          ; Untyped                          ;
; CBXI_PARAMETER         ; add_sub_52j   ; Untyped                          ;
; AUTO_CARRY_CHAINS      ; ON            ; AUTO_CARRY                       ;
; IGNORE_CARRY_BUFFERS   ; OFF           ; IGNORE_CARRY                     ;
; AUTO_CASCADE_CHAINS    ; ON            ; AUTO_CASCADE                     ;
; IGNORE_CASCADE_BUFFERS ; OFF           ; IGNORE_CASCADE                   ;
+------------------------+---------------+----------------------------------+
Note: In order to hide this table in the UI and the text report file, please set the "Show Parameter Settings in Synthesis Report" option in "Analysis and Synthesis Settings -> More Settings" to "Off".


+-------------------------------------------------------------------------------+
; altsyncram Parameter Settings by Entity Instance                              ;
+-------------------------------------------+-----------------------------------+
; Name                                      ; Value                             ;
+-------------------------------------------+-----------------------------------+
; Number of entity instances                ; 1                                 ;
; Entity Instance                           ; RAMemory:RAM|altsyncram:ram_rtl_0 ;
;     -- OPERATION_MODE                     ; SINGLE_PORT                       ;
;     -- WIDTH_A                            ; 21                                ;
;     -- NUMWORDS_A                         ; 64                                ;
;     -- OUTDATA_REG_A                      ; UNREGISTERED                      ;
;     -- WIDTH_B                            ; 1                                 ;
;     -- NUMWORDS_B                         ; 1                                 ;
;     -- ADDRESS_REG_B                      ; CLOCK1                            ;
;     -- OUTDATA_REG_B                      ; UNREGISTERED                      ;
;     -- RAM_BLOCK_TYPE                     ; AUTO                              ;
;     -- READ_DURING_WRITE_MODE_MIXED_PORTS ; DONT_CARE                         ;
+-------------------------------------------+-----------------------------------+


+------------------------------------------------------------------------------------------------------------------+
; Port Connectivity Checks: "IRegister:IR"                                                                         ;
+--------+--------+----------+-------------------------------------------------------------------------------------+
; Port   ; Type   ; Severity ; Details                                                                             ;
+--------+--------+----------+-------------------------------------------------------------------------------------+
; opcode ; Output ; Info     ; Connected to dangling logic. Logic that only feeds a dangling port will be removed. ;
+--------+--------+----------+-------------------------------------------------------------------------------------+


+--------------------------------------------------------------+
; Port Connectivity Checks: "muxALU:muxALU"                    ;
+----------------------------+-------+----------+--------------+
; Port                       ; Type  ; Severity ; Details      ;
+----------------------------+-------+----------+--------------+
; constanteinstruccion[6..5] ; Input ; Info     ; Stuck at GND ;
+----------------------------+-------+----------+--------------+


+------------------------------------------+
; Port Connectivity Checks: "RAMemory:RAM" ;
+------+-------+----------+----------------+
; Port ; Type  ; Severity ; Details        ;
+------+-------+----------+----------------+
; data ; Input ; Info     ; Stuck at GND   ;
+------+-------+----------+----------------+


+-------------------------------+
; Elapsed Time Per Partition    ;
+----------------+--------------+
; Partition Name ; Elapsed Time ;
+----------------+--------------+
; Top            ; 00:00:01     ;
+----------------+--------------+


+-------------------------------+
; Analysis & Synthesis Messages ;
+-------------------------------+
Info: *******************************************************************
Info: Running Quartus II 64-Bit Analysis & Synthesis
    Info: Version 13.0.1 Build 232 06/12/2013 Service Pack 1 SJ Web Edition
    Info: Processing started: Tue Nov 21 10:17:41 2017
Info: Command: quartus_map --read_settings_files=on --write_settings_files=off cultivos -c cultivos
Warning (20028): Parallel compilation is not licensed and has been disabled
Info (12021): Found 2 design units, including 1 entities, in source file registerfile.vhd
    Info (12022): Found design unit 1: registerFile-Behavioral
    Info (12023): Found entity 1: registerFile
Info (12021): Found 2 design units, including 1 entities, in source file ramemory.vhd
    Info (12022): Found design unit 1: RAMemory-rtl
    Info (12023): Found entity 1: RAMemory
Info (12021): Found 2 design units, including 1 entities, in source file alu.vhd
    Info (12022): Found design unit 1: ALU-Behavioral
    Info (12023): Found entity 1: ALU
Info (12021): Found 2 design units, including 1 entities, in source file integracion.vhd
    Info (12022): Found design unit 1: Integracion-Behavioral
    Info (12023): Found entity 1: Integracion
Info (12021): Found 2 design units, including 1 entities, in source file muxalu.vhd
    Info (12022): Found design unit 1: muxALU-Behavioral
    Info (12023): Found entity 1: muxALU
Info (12021): Found 2 design units, including 1 entities, in source file iregister.vhd
    Info (12022): Found design unit 1: IRegister-Behavioral
    Info (12023): Found entity 1: IRegister
Info (12021): Found 2 design units, including 1 entities, in source file muxmemoryiord.vhd
    Info (12022): Found design unit 1: muxMemoryIorD-Behavioral
    Info (12023): Found entity 1: muxMemoryIorD
Info (12021): Found 2 design units, including 1 entities, in source file registroab.vhd
    Info (12022): Found design unit 1: registroAB-Behavioral
    Info (12023): Found entity 1: registroAB
Info (12021): Found 2 design units, including 1 entities, in source file registro.vhd
    Info (12022): Found design unit 1: registro-Behavioral
    Info (12023): Found entity 1: registro
Info (12127): Elaborating entity "Integracion" for the top level hierarchy
Warning (10036): Verilog HDL or VHDL warning at Integracion.vhd(40): object "opSignal" assigned a value but never read
Info (12128): Elaborating entity "RAMemory" for hierarchy "RAMemory:RAM"
Info (12128): Elaborating entity "registerFile" for hierarchy "registerFile:RegisterFile"
Info (12128): Elaborating entity "ALU" for hierarchy "ALU:ALU"
Info (12128): Elaborating entity "muxALU" for hierarchy "muxALU:muxALU"
Info (12128): Elaborating entity "IRegister" for hierarchy "IRegister:IR"
Warning (10492): VHDL Process Statement warning at IRegister.vhd(33): signal "instruccion" is read inside the Process Statement but isn't in the Process Statement's sensitivity list
Warning (10492): VHDL Process Statement warning at IRegister.vhd(34): signal "instruccion" is read inside the Process Statement but isn't in the Process Statement's sensitivity list
Warning (10492): VHDL Process Statement warning at IRegister.vhd(35): signal "instruccion" is read inside the Process Statement but isn't in the Process Statement's sensitivity list
Warning (10492): VHDL Process Statement warning at IRegister.vhd(36): signal "instruccion" is read inside the Process Statement but isn't in the Process Statement's sensitivity list
Info (12128): Elaborating entity "muxMemoryIorD" for hierarchy "muxMemoryIorD:muxIorD"
Info (12128): Elaborating entity "registro" for hierarchy "registro:RA"
Warning (10492): VHDL Process Statement warning at registro.vhd(26): signal "writeEneable" is read inside the Process Statement but isn't in the Process Statement's sensitivity list
Warning (276021): Created node "RAMemory:RAM|ram" as a single-port RAM by generating altsyncram megafunction to implement register logic. Power-up values at the outputs of the RAM are different from the original design.
Info (19000): Inferred 1 megafunctions from design logic
    Info (276029): Inferred altsyncram megafunction from the following design logic: "RAMemory:RAM|ram_rtl_0" 
        Info (286033): Parameter OPERATION_MODE set to SINGLE_PORT
        Info (286033): Parameter WIDTH_A set to 21
        Info (286033): Parameter WIDTHAD_A set to 6
        Info (286033): Parameter NUMWORDS_A set to 64
        Info (286033): Parameter OUTDATA_REG_A set to UNREGISTERED
        Info (286033): Parameter ADDRESS_ACLR_A set to NONE
        Info (286033): Parameter OUTDATA_ACLR_A set to NONE
        Info (286033): Parameter INDATA_ACLR_A set to NONE
        Info (286033): Parameter WRCONTROL_ACLR_A set to NONE
        Info (286033): Parameter INIT_FILE set to db/cultivos.ram0_RAMemory_a459f2c8.hdl.mif
Info (278001): Inferred 1 megafunctions from design logic
    Info (278002): Inferred adder/subtractor megafunction ("lpm_add_sub") from the following logic: "ALU:ALU|Add0"
Info (12130): Elaborated megafunction instantiation "RAMemory:RAM|altsyncram:ram_rtl_0"
Info (12133): Instantiated megafunction "RAMemory:RAM|altsyncram:ram_rtl_0" with the following parameter:
    Info (12134): Parameter "OPERATION_MODE" = "SINGLE_PORT"
    Info (12134): Parameter "WIDTH_A" = "21"
    Info (12134): Parameter "WIDTHAD_A" = "6"
    Info (12134): Parameter "NUMWORDS_A" = "64"
    Info (12134): Parameter "OUTDATA_REG_A" = "UNREGISTERED"
    Info (12134): Parameter "ADDRESS_ACLR_A" = "NONE"
    Info (12134): Parameter "OUTDATA_ACLR_A" = "NONE"
    Info (12134): Parameter "INDATA_ACLR_A" = "NONE"
    Info (12134): Parameter "WRCONTROL_ACLR_A" = "NONE"
    Info (12134): Parameter "INIT_FILE" = "db/cultivos.ram0_RAMemory_a459f2c8.hdl.mif"
Info (12021): Found 1 design units, including 1 entities, in source file db/altsyncram_vd91.tdf
    Info (12023): Found entity 1: altsyncram_vd91
Info (12130): Elaborated megafunction instantiation "ALU:ALU|lpm_add_sub:Add0"
Info (12133): Instantiated megafunction "ALU:ALU|lpm_add_sub:Add0" with the following parameter:
    Info (12134): Parameter "LPM_WIDTH" = "7"
    Info (12134): Parameter "LPM_DIRECTION" = "DEFAULT"
    Info (12134): Parameter "LPM_REPRESENTATION" = "UNSIGNED"
    Info (12134): Parameter "ONE_INPUT_IS_CONSTANT" = "NO"
Info (12021): Found 1 design units, including 1 entities, in source file db/add_sub_52j.tdf
    Info (12023): Found entity 1: add_sub_52j
Info (286030): Timing-Driven Synthesis is running
Info (16010): Generating hard_block partition "hard_block:auto_generated_inst"
    Info (16011): Adding 0 node(s), including 0 DDIO, 0 PLL, 0 transceiver and 0 LCELL
Info (21057): Implemented 416 device resources after synthesis - the final resource count might be different
    Info (21058): Implemented 19 input pins
    Info (21059): Implemented 54 output pins
    Info (21061): Implemented 322 logic cells
    Info (21064): Implemented 21 RAM segments
Info: Quartus II 64-Bit Analysis & Synthesis was successful. 0 errors, 8 warnings
    Info: Peak virtual memory: 586 megabytes
    Info: Processing ended: Tue Nov 21 10:17:45 2017
    Info: Elapsed time: 00:00:04
    Info: Total CPU time (on all processors): 00:00:03


