Flow report for cultivos
Tue Nov 21 10:41:13 2017
Quartus II 64-Bit Version 13.0.1 Build 232 06/12/2013 Service Pack 1 SJ Web Edition


---------------------
; Table of Contents ;
---------------------
  1. Legal Notice
  2. Flow Summary
  3. Flow Settings
  4. Flow Non-Default Global Settings
  5. Flow Elapsed Time
  6. Flow OS Summary
  7. Flow Log
  8. Flow Messages
  9. Flow Suppressed Messages



----------------
; Legal Notice ;
----------------
Copyright (C) 1991-2013 Altera Corporation
Your use of Altera Corporation's design tools, logic functions 
and other software and tools, and its AMPP partner logic 
functions, and any output files from any of the foregoing 
(including device programming or simulation files), and any 
associated documentation or information are expressly subject 
to the terms and conditions of the Altera Program License 
Subscription Agreement, Altera MegaCore Function License 
Agreement, or other applicable license agreement, including, 
without limitation, that your use is for the sole purpose of 
programming logic devices manufactured by Altera and sold by 
Altera or its authorized distributors.  Please refer to the 
applicable agreement for further details.



+--------------------------------------------------------------------------------------+
; Flow Summary                                                                         ;
+------------------------------------+-------------------------------------------------+
; Flow Status                        ; Successful - Tue Nov 21 10:41:13 2017           ;
; Quartus II 64-Bit Version          ; 13.0.1 Build 232 06/12/2013 SP 1 SJ Web Edition ;
; Revision Name                      ; cultivos                                        ;
; Top-level Entity Name              ; Integracion                                     ;
; Family                             ; Cyclone IV GX                                   ;
; Total logic elements               ; 315                                             ;
;     Total combinational functions  ; 193                                             ;
;     Dedicated logic registers      ; 145                                             ;
; Total registers                    ; 145                                             ;
; Total pins                         ; 73                                              ;
; Total virtual pins                 ; 0                                               ;
; Total memory bits                  ; 1,344                                           ;
; Embedded Multiplier 9-bit elements ; 0                                               ;
; Total GXB Receiver Channel PCS     ; 0                                               ;
; Total GXB Receiver Channel PMA     ; 0                                               ;
; Total GXB Transmitter Channel PCS  ; 0                                               ;
; Total GXB Transmitter Channel PMA  ; 0                                               ;
; Total PLLs                         ; 0                                               ;
+------------------------------------+-------------------------------------------------+


+-----------------------------------------+
; Flow Settings                           ;
+-------------------+---------------------+
; Option            ; Setting             ;
+-------------------+---------------------+
; Start date & time ; 11/21/2017 10:17:42 ;
; Main task         ; Compilation         ;
; Revision Name     ; cultivos            ;
+-------------------+---------------------+


+---------------------------------------------------------------------------------------------------------------------+
; Flow Non-Default Global Settings                                                                                    ;
+-------------------------------------+--------------------------------+---------------+-------------+----------------+
; Assignment Name                     ; Value                          ; Default Value ; Entity Name ; Section Id     ;
+-------------------------------------+--------------------------------+---------------+-------------+----------------+
; COMPILER_SIGNATURE_ID               ; 88491846430532.151127746205352 ; --            ; --          ; --             ;
; EDA_GENERATE_FUNCTIONAL_NETLIST     ; On                             ; --            ; --          ; eda_simulation ;
; EDA_OUTPUT_DATA_FORMAT              ; Verilog Hdl                    ; --            ; --          ; eda_simulation ;
; EDA_SIMULATION_TOOL                 ; ModelSim-Altera (Verilog)      ; <None>        ; --          ; --             ;
; PARTITION_COLOR                     ; 16764057                       ; --            ; Integracion ; Top            ;
; PARTITION_FITTER_PRESERVATION_LEVEL ; PLACEMENT_AND_ROUTING          ; --            ; Integracion ; Top            ;
; PARTITION_NETLIST_TYPE              ; SOURCE                         ; --            ; Integracion ; Top            ;
; PROJECT_OUTPUT_DIRECTORY            ; output_files                   ; --            ; --          ; --             ;
; TOP_LEVEL_ENTITY                    ; Integracion                    ; cultivos      ; --          ; --             ;
+-------------------------------------+--------------------------------+---------------+-------------+----------------+


+--------------------------------------------------------------------------------------------------------------------------+
; Flow Elapsed Time                                                                                                        ;
+----------------------+--------------+-------------------------+---------------------+------------------------------------+
; Module Name          ; Elapsed Time ; Average Processors Used ; Peak Virtual Memory ; Total CPU Time (on all processors) ;
+----------------------+--------------+-------------------------+---------------------+------------------------------------+
; Analysis & Synthesis ; 00:00:03     ; 1.0                     ; 582 MB              ; 00:00:03                           ;
; EDA Netlist Writer   ; 00:00:01     ; 1.0                     ; 451 MB              ; 00:00:01                           ;
; EDA Netlist Writer   ; 00:00:01     ; 1.0                     ; 467 MB              ; 00:00:01                           ;
; EDA Netlist Writer   ; 00:00:01     ; 1.0                     ; 451 MB              ; 00:00:01                           ;
; EDA Netlist Writer   ; 00:00:01     ; 1.0                     ; 467 MB              ; 00:00:01                           ;
; EDA Netlist Writer   ; 00:00:01     ; 1.0                     ; 451 MB              ; 00:00:01                           ;
; EDA Netlist Writer   ; 00:00:01     ; 1.0                     ; 467 MB              ; 00:00:01                           ;
; EDA Netlist Writer   ; 00:00:01     ; 1.0                     ; 451 MB              ; 00:00:01                           ;
; EDA Netlist Writer   ; 00:00:01     ; 1.0                     ; 467 MB              ; 00:00:01                           ;
; Total                ; 00:00:11     ; --                      ; --                  ; 00:00:11                           ;
+----------------------+--------------+-------------------------+---------------------+------------------------------------+


+-----------------------------------------------------------------------------------+
; Flow OS Summary                                                                   ;
+----------------------+------------------+-----------+------------+----------------+
; Module Name          ; Machine Hostname ; OS Name   ; OS Version ; Processor type ;
+----------------------+------------------+-----------+------------+----------------+
; Analysis & Synthesis ; Alejandro        ; Windows 7 ; 6.2        ; x86_64         ;
; EDA Netlist Writer   ; Alejandro        ; Windows 7 ; 6.2        ; x86_64         ;
; EDA Netlist Writer   ; Alejandro        ; Windows 7 ; 6.2        ; x86_64         ;
; EDA Netlist Writer   ; Alejandro        ; Windows 7 ; 6.2        ; x86_64         ;
; EDA Netlist Writer   ; Alejandro        ; Windows 7 ; 6.2        ; x86_64         ;
; EDA Netlist Writer   ; Alejandro        ; Windows 7 ; 6.2        ; x86_64         ;
; EDA Netlist Writer   ; Alejandro        ; Windows 7 ; 6.2        ; x86_64         ;
; EDA Netlist Writer   ; Alejandro        ; Windows 7 ; 6.2        ; x86_64         ;
; EDA Netlist Writer   ; Alejandro        ; Windows 7 ; 6.2        ; x86_64         ;
+----------------------+------------------+-----------+------------+----------------+


------------
; Flow Log ;
------------
quartus_map --read_settings_files=on --write_settings_files=off cultivos -c cultivos
quartus_eda --gen_testbench --check_outputs=on --tool=modelsim_oem --format=verilog cultivos -c cultivos --vector_source=C:/Users/ALEJANDRO/Desktop/Arquii/Waveform1.vwf --testbench_file=./simulation/qsim/cultivos.vt
quartus_eda --functional=on --simulation=on --tool=modelsim_oem --format=verilog cultivos -c cultivos
quartus_eda --gen_testbench --check_outputs=on --tool=modelsim_oem --format=verilog cultivos -c cultivos --vector_source=C:/Users/ALEJANDRO/Desktop/Arquii/Waveform1.vwf --testbench_file=./simulation/qsim/cultivos.vt
quartus_eda --functional=on --simulation=on --tool=modelsim_oem --format=verilog cultivos -c cultivos
quartus_eda --gen_testbench --check_outputs=on --tool=modelsim_oem --format=verilog cultivos -c cultivos --vector_source=C:/Users/ALEJANDRO/Desktop/Arquii/Waveform1.vwf --testbench_file=./simulation/qsim/cultivos.vt
quartus_eda --functional=on --simulation=on --tool=modelsim_oem --format=verilog cultivos -c cultivos
quartus_eda --gen_testbench --check_outputs=on --tool=modelsim_oem --format=verilog cultivos -c cultivos --vector_source=C:/Users/ALEJANDRO/Desktop/Arquii/Waveform1.vwf --testbench_file=./simulation/qsim/cultivos.vt
quartus_eda --functional=on --simulation=on --tool=modelsim_oem --format=verilog cultivos -c cultivos



